%YAML 1.1
%TAG !u! tag:unity3d.com,2011:
--- !u!1045 &1
EditorBuildSettings:
  m_ObjectHideFlags: 0
  serializedVersion: 2
  m_Scenes:
  - enabled: 1
    path: Assets/Scenes/MainMenu.unity
    guid: 4ac31eca45c94e840872ea2d25a978dd
  - enabled: 1
    path: Assets/Scenes/Main.unity
    guid: 56674d929f5861a41bbbe4ff964425c0
